<svg width="51" height="44" viewBox="0 0 51 44" fill="none" xmlns="http://www.w3.org/2000/svg">
<path d="M35.3374 1H15.719C14.2956 1 12.9794 1.75645 12.2628 2.98635L2.33372 20.0285C1.60728 21.2753 1.60873 22.8168 2.33752 24.0623L12.2604 41.0201C12.9779 42.2464 14.292 43 15.7127 43H35.3719C36.7972 43 38.1149 42.2415 38.8308 41.0089L48.6781 24.0542C49.399 22.8131 49.3996 21.2808 48.6797 20.0391L38.7979 2.99381C38.0825 1.7597 36.7639 1 35.3374 1Z" stroke="white" stroke-opacity="0.6" stroke-width="2"/>
<path d="M37 22H13M37 22L31 28M37 22L31 16" stroke="white" stroke-opacity="0.6" stroke-width="2" stroke-linecap="round"/>
</svg>
