<svg width="27" height="14" viewBox="0 0 27 14" fill="none" xmlns="http://www.w3.org/2000/svg">
<path d="M25 7H1M25 7L19 13M25 7L19 1" stroke="url(#paint0_linear)" stroke-width="2" stroke-linecap="round"/>
<defs>
<linearGradient id="paint0_linear" x1="-0.499997" y1="-1.5" x2="18" y2="10.5" gradientUnits="userSpaceOnUse">
<stop stop-color="#FF8519"/>
<stop offset="1" stop-color="#FD238A"/>
</linearGradient>
</defs>
</svg>
