<svg width="30" height="27" viewBox="0 0 30 27" fill="none" xmlns="http://www.w3.org/2000/svg">
<path d="M7.5 16.5C7.5 16.7761 7.72386 17 8 17C8.27614 17 8.5 16.7761 8.5 16.5H7.5ZM11 12.5C11 12.7761 11.2239 13 11.5 13C11.7761 13 12 12.7761 12 12.5H11ZM14.1464 4.64645C13.9512 4.84171 13.9512 5.15829 14.1464 5.35355C14.3417 5.54882 14.6583 5.54882 14.8536 5.35355L14.1464 4.64645ZM18.5 1H19V0.5H18.5V1ZM16 0.5C15.7239 0.5 15.5 0.723858 15.5 1C15.5 1.27614 15.7239 1.5 16 1.5V0.5ZM18 4C18 4.27614 18.2239 4.5 18.5 4.5C18.7761 4.5 19 4.27614 19 4H18ZM15.5 25.5H15V26H15.5V25.5ZM25.8536 15.8536C26.0488 15.6583 26.0488 15.3417 25.8536 15.1464C25.6583 14.9512 25.3417 14.9512 25.1464 15.1464L25.8536 15.8536ZM16 22.5C16 22.2239 15.7761 22 15.5 22C15.2239 22 15 22.2239 15 22.5H16ZM18 26C18.2761 26 18.5 25.7761 18.5 25.5C18.5 25.2239 18.2761 25 18 25V26ZM8.59261 25.3679L8.95738 25.7099L8.59261 25.3679ZM22.4074 10.6321L22.0426 10.2902L22.4074 10.6321ZM21.9074 4.13212L21.5426 3.79015L21.9074 4.13212ZM8.09261 18.8679L7.72784 18.5259L8.09261 18.8679ZM3 20H6.63354V19H3V20ZM8.45738 19.2099L22.2722 4.47409L21.5426 3.79015L7.72784 18.5259L8.45738 19.2099ZM23.3665 4H27V3H23.3665V4ZM28.5 5.5V8.00002H29.5V5.5H28.5ZM27 9.50002L23.8665 9.5L23.8665 10.5L27 10.5L27 9.50002ZM22.0426 10.2902L8.22784 25.0259L8.95738 25.7099L22.7722 10.9741L22.0426 10.2902ZM7.13353 25.5H3V26.5H7.13353V25.5ZM1.5 24V21.5H0.5V24H1.5ZM8.5 16.5V11.5H7.5V16.5H8.5ZM9 11H10.5V10H9V11ZM11 11.5V12.5H12V11.5H11ZM18.5 0.5H16V1.5H18.5V0.5ZM18 1V4H19V1H18ZM15.8536 25.8536L25.8536 15.8536L25.1464 15.1464L15.1464 25.1464L15.8536 25.8536ZM16 25.5V22.5H15V25.5H16ZM15.5 26H18V25H15.5V26ZM14.8536 5.35355L18.8536 1.35355L18.1464 0.646447L14.1464 4.64645L14.8536 5.35355ZM9.75 8.5C9.05964 8.5 8.5 7.94036 8.5 7.25H7.5C7.5 8.49264 8.50736 9.5 9.75 9.5V8.5ZM11 7.25C11 7.94036 10.4404 8.5 9.75 8.5V9.5C10.9926 9.5 12 8.49264 12 7.25H11ZM9.75 6C10.4404 6 11 6.55964 11 7.25H12C12 6.00736 10.9926 5 9.75 5V6ZM10.5 11C10.7761 11 11 11.2239 11 11.5H12C12 10.6716 11.3284 10 10.5 10V11ZM8.5 11.5C8.5 11.2239 8.72386 11 9 11V10C8.17157 10 7.5 10.6716 7.5 11.5H8.5ZM3 25.5C2.17157 25.5 1.5 24.8285 1.5 24H0.5C0.5 25.3807 1.61929 26.5 3 26.5V25.5ZM8.22784 25.0259C7.94427 25.3284 7.54815 25.5 7.13353 25.5V26.5C7.82456 26.5 8.48476 26.214 8.95738 25.7099L8.22784 25.0259ZM23.8665 9.5C23.1754 9.5 22.5152 9.78602 22.0426 10.2902L22.7722 10.9741C23.0557 10.6716 23.4519 10.5 23.8665 10.5L23.8665 9.5ZM28.5 8.00002C28.5 8.82845 27.8284 9.50003 27 9.50002L27 10.5C28.3807 10.5 29.5 9.38074 29.5 8.00002H28.5ZM27 4C27.8284 4 28.5 4.67157 28.5 5.5H29.5C29.5 4.11929 28.3807 3 27 3V4ZM22.2722 4.47409C22.5557 4.17161 22.9519 4 23.3665 4V3C22.6754 3 22.0152 3.28602 21.5426 3.79015L22.2722 4.47409ZM9.75 5C8.50736 5 7.5 6.00736 7.5 7.25H8.5C8.5 6.55964 9.05964 6 9.75 6V5ZM6.63354 20C7.32456 20 7.98476 19.714 8.45738 19.2099L7.72784 18.5259C7.44427 18.8284 7.04815 19 6.63354 19V20ZM3 19C1.61929 19 0.5 20.1193 0.5 21.5H1.5C1.5 20.6716 2.17157 20 3 20V19Z" fill="url(#paint0_linear)"/>
<defs>
<linearGradient id="paint0_linear" x1="1.35535" y1="18.7172" x2="22.3864" y2="12.3172" gradientUnits="userSpaceOnUse">
<stop stop-color="#FF742E"/>
<stop offset="1" stop-color="#FD238A"/>
</linearGradient>
</defs>
</svg>
