<svg width="126" height="40" viewBox="0 0 126 40" fill="none" xmlns="http://www.w3.org/2000/svg">
<path d="M0 15C0 6.71573 6.71573 0 15 0H126V25C126 33.2843 119.284 40 111 40H0V15Z" fill="url(#paint0_linear)"/>
<path d="M13.288 25.192C13.896 25.192 14.36 24.712 14.36 24.072V20.44H19.032V24.072C19.032 24.712 19.496 25.192 20.12 25.192C20.728 25.192 21.192 24.712 21.192 24.072V15.352C21.192 14.712 20.744 14.248 20.12 14.248C19.48 14.248 19.032 14.712 19.032 15.352V18.488H14.36V15.368C14.36 14.728 13.912 14.248 13.288 14.248C12.648 14.248 12.2 14.728 12.2 15.368V24.072C12.2 24.712 12.664 25.192 13.288 25.192ZM27.0485 16.904C24.7125 16.904 22.9365 18.696 22.9365 21.048C22.9365 23.416 24.7765 25.192 27.2725 25.192C28.2005 25.192 29.0645 24.936 29.7845 24.456C30.1685 24.2 30.3285 23.944 30.3285 23.592C30.3285 23.096 29.9445 22.728 29.4485 22.728C29.2885 22.728 29.1445 22.776 28.9845 22.872C28.5045 23.176 27.9125 23.336 27.3365 23.336C26.1685 23.336 25.3685 22.76 25.1125 21.768H29.6245C30.3285 21.768 30.8085 21.336 30.8085 20.664V20.616C30.8085 18.472 29.2085 16.904 27.0485 16.904ZM27.0005 18.648C28.0085 18.648 28.6805 19.304 28.7125 20.248H25.1125C25.3525 19.272 26.0565 18.648 27.0005 18.648ZM38.1303 25.192C38.7543 25.192 39.2183 24.728 39.2183 24.104V18.904H42.0823V24.104C42.0823 24.728 42.5463 25.192 43.1543 25.192C43.7783 25.192 44.2423 24.728 44.2423 24.104V18.168C44.2423 17.544 43.7783 17.08 43.1543 17.08H38.1463C37.5223 17.08 37.0583 17.544 37.0583 18.168V24.104C37.0583 24.728 37.5223 25.192 38.1303 25.192ZM51.0706 16.904C50.0466 16.904 49.1986 17.272 48.6546 17.912C48.6226 17.32 48.1906 16.888 47.6146 16.888C47.0066 16.888 46.5426 17.352 46.5426 17.96V26.984C46.5426 27.608 47.0066 28.072 47.6306 28.072C48.2386 28.072 48.7026 27.608 48.7026 26.984V24.232C49.2466 24.84 50.0786 25.192 51.0706 25.192C53.2946 25.192 54.9106 23.432 54.9106 21.032C54.9106 18.632 53.2946 16.904 51.0706 16.904ZM50.6706 23.224C49.4866 23.224 48.6706 22.328 48.6706 21.032C48.6706 19.736 49.4706 18.856 50.6706 18.856C51.8706 18.856 52.7186 19.768 52.7186 21.048C52.7186 22.312 51.8546 23.224 50.6706 23.224ZM60.3953 16.904C58.0113 16.904 56.1553 18.712 56.1553 21.032C56.1553 23.352 58.0113 25.176 60.3793 25.176C62.7633 25.176 64.6513 23.336 64.6513 21.032C64.6513 18.728 62.7633 16.904 60.3953 16.904ZM60.3953 18.872C61.5633 18.872 62.4433 19.8 62.4433 21.048C62.4433 22.28 61.5633 23.192 60.3953 23.192C59.2113 23.192 58.3473 22.296 58.3473 21.048C58.3473 19.784 59.2113 18.872 60.3953 18.872ZM67.4896 25.192C68.1136 25.192 68.5776 24.728 68.5776 24.104V18.904H71.4416V24.104C71.4416 24.728 71.9056 25.192 72.5136 25.192C73.1376 25.192 73.6016 24.728 73.6016 24.104V18.168C73.6016 17.544 73.1376 17.08 72.5136 17.08H67.5056C66.8816 17.08 66.4176 17.544 66.4176 18.168V24.104C66.4176 24.728 66.8816 25.192 67.4896 25.192ZM82.318 16.904C81.886 16.904 81.518 17.144 81.358 17.512L79.214 22.2L77.118 17.512C76.958 17.128 76.59 16.904 76.174 16.904C75.598 16.904 75.118 17.384 75.118 17.944C75.118 18.104 75.166 18.264 75.262 18.456L77.998 24.488L77.71 25.128C77.358 25.848 76.894 26.136 76.206 26.136C76.158 26.136 76.094 26.12 76.014 26.12C75.47 26.12 75.038 26.52 75.038 27.048C75.038 27.416 75.246 27.752 75.582 27.896C75.822 28.008 76.142 28.072 76.494 28.072C77.934 28.072 78.894 27.336 79.742 25.592L83.23 18.44C83.326 18.264 83.358 18.104 83.358 17.944C83.358 17.384 82.878 16.904 82.318 16.904ZM88.239 25.192C89.647 25.192 90.799 24.584 91.455 23.576C91.583 23.384 91.631 23.224 91.631 23.032C91.631 22.504 91.199 22.072 90.671 22.072C90.383 22.072 90.159 22.152 89.935 22.408C89.503 22.888 88.959 23.208 88.271 23.208C87.055 23.208 86.191 22.312 86.191 21.032C86.191 19.768 87.055 18.872 88.271 18.872C88.975 18.872 89.535 19.192 89.935 19.672C90.127 19.912 90.367 20.008 90.671 20.008C91.199 20.008 91.631 19.576 91.631 19.048C91.631 18.872 91.583 18.696 91.439 18.472C90.831 17.544 89.583 16.904 88.239 16.904C85.855 16.904 83.999 18.712 83.999 21.032C83.999 23.352 85.855 25.192 88.239 25.192ZM95.9471 25.192C96.5711 25.192 97.0191 24.712 97.0191 24.088V18.888H98.7311C99.2751 18.888 99.6591 18.504 99.6591 17.976C99.6591 17.464 99.2751 17.064 98.7311 17.064H93.1791C92.6511 17.064 92.2511 17.464 92.2511 17.976C92.2511 18.504 92.6511 18.888 93.1791 18.888H94.8751V24.088C94.8751 24.712 95.3391 25.192 95.9471 25.192ZM107.223 16.904C106.855 16.904 106.567 17.064 106.263 17.432L103.015 21.512V17.992C103.015 17.368 102.551 16.904 101.943 16.904C101.319 16.904 100.855 17.368 100.855 17.992V24.088C100.855 24.712 101.319 25.192 101.927 25.192C102.295 25.192 102.583 25.032 102.887 24.664L106.151 20.616V24.088C106.151 24.712 106.615 25.192 107.223 25.192C107.831 25.192 108.295 24.712 108.295 24.088V17.992C108.295 17.368 107.831 16.904 107.223 16.904ZM112.221 21.656C112.829 21.656 113.245 21.144 113.277 20.552L113.453 15.576C113.485 14.808 112.989 14.248 112.221 14.248C111.421 14.248 110.941 14.808 110.973 15.576L111.149 20.552C111.165 21.144 111.581 21.656 112.221 21.656ZM112.237 25.192C113.037 25.192 113.613 24.584 113.613 23.8C113.613 23.032 113.037 22.392 112.237 22.392C111.421 22.392 110.813 23.032 110.813 23.8C110.813 24.584 111.421 25.192 112.237 25.192Z" fill="white"/>
<defs>
<linearGradient id="paint0_linear" x1="2.03519" y1="25.4344" x2="76.8358" y2="-39.7498" gradientUnits="userSpaceOnUse">
<stop stop-color="#FF742E"/>
<stop offset="1" stop-color="#FD238A"/>
</linearGradient>
</defs>
</svg>
