<svg width="1300" height="316" viewBox="0 0 1300 316" fill="none" xmlns="http://www.w3.org/2000/svg">
<rect width="1300" height="316" rx="15" fill="url(#paint0_linear)"/>
<defs>
<linearGradient id="paint0_linear" x1="20.998" y1="200.932" x2="612.569" y2="-472.34" gradientUnits="userSpaceOnUse">
<stop stop-color="#FF742E"/>
<stop offset="1" stop-color="#FD238A"/>
</linearGradient>
</defs>
</svg>
