<svg width="50" height="50" viewBox="0 0 50 50" fill="none" xmlns="http://www.w3.org/2000/svg">
<circle cx="25" cy="25" r="24" stroke="url(#paint0_linear)" stroke-width="2"/>
<path d="M35.9637 29.1502C35.2193 28.2037 34.3434 27.3958 33.5146 26.538C32.7669 25.7648 32.7198 25.3162 33.3208 24.4238C33.9768 23.4498 34.6823 22.5131 35.3442 21.5435C35.9621 20.6373 36.5937 19.7336 36.9189 18.6486C37.1251 17.9584 36.9427 17.6535 36.2751 17.5326C36.16 17.5115 36.0411 17.5104 35.924 17.5104L31.963 17.5054C31.4752 17.4977 31.2055 17.7232 31.0329 18.1817C30.8 18.8014 30.5599 19.4205 30.2824 20.0185C29.6528 21.3743 28.9497 22.6848 27.9639 23.7945C27.7466 24.0392 27.5061 24.3485 27.1429 24.2211C26.6885 24.0453 26.5546 23.2514 26.5621 22.9831L26.5582 18.1358C26.4701 17.4433 26.3253 17.1346 25.6768 17L21.5622 17.0008C21.0129 17.0008 20.7375 17.2258 20.4443 17.59C20.2751 17.8004 20.2241 17.9369 20.5717 18.0067C21.2547 18.144 21.6394 18.6126 21.7415 19.3386C21.9052 20.4986 21.8938 21.6632 21.7995 22.8279C21.7718 23.1679 21.7166 23.5072 21.5894 23.8247C21.3904 24.3238 21.0692 24.4254 20.6471 24.1183C20.265 23.8404 19.9966 23.4481 19.7339 23.0542C18.7471 21.5759 17.9597 19.9817 17.3178 18.3064C17.1323 17.8224 16.8123 17.529 16.3286 17.5211C15.1402 17.501 13.9516 17.4977 12.7632 17.5222C12.0482 17.5365 11.8349 17.9045 12.1261 18.5918C13.4205 21.6443 14.8612 24.6119 16.7418 27.3153C17.7074 28.7028 18.816 29.9275 20.2482 30.7955C21.8713 31.7794 23.6185 32.0755 25.4587 31.9844C26.3204 31.9415 26.5792 31.7039 26.6191 30.7933C26.646 30.1704 26.7126 29.551 27.0025 28.9912C27.287 28.4418 27.7178 28.3372 28.2145 28.6789C28.4629 28.85 28.6722 29.0678 28.8699 29.2974C29.3549 29.86 29.8225 30.4396 30.3259 30.9831C30.9573 31.6644 31.7052 32.0668 32.6457 31.9846L36.2862 31.9855C36.8727 31.9448 37.1769 31.1823 36.8401 30.4882C36.6036 30.002 36.2932 29.5691 35.9637 29.1502Z" fill="#333333"/>
<defs>
<linearGradient id="paint0_linear" x1="0.807614" y1="31.793" x2="49.319" y2="18.3725" gradientUnits="userSpaceOnUse">
<stop stop-color="#FF742E"/>
<stop offset="1" stop-color="#FD238A"/>
</linearGradient>
</defs>
</svg>
